FARS Functions in the week4 Package
…
fars_read and make_filename

The fars_read function reads the FARS data file and loads it into a data frame in R for subsequent analysis. If the file does not exist, it returns a file does not exist message.

The FARS data files share a common format - accident_.csv.bz2. The make_filename function provides a easy way to return the full filename to be entered by simply keying in the year.

dat <- fars_read(make_filename(2013))

fars_read_years

The fars_read_years function loads files from multiple years and returns the months and years data from these files. Input argument is year or a list of years (e.g. 2013).

fars_read_years(c(2013, 2014))
#> [[1]]
#> # A tibble: 30,202 x 2
#>    MONTH  year
#>    <int> <dbl>
#>  1     1  2013
#>  2     1  2013
#>  3     1  2013
#>  4     1  2013
#>  5     1  2013
#>  6     1  2013
#>  7     1  2013
#>  8     1  2013
#>  9     1  2013
#> 10     1  2013
#> # ... with 30,192 more rows
#> 
#> [[2]]
#> # A tibble: 30,056 x 2
#>    MONTH  year
#>    <int> <dbl>
#>  1     1  2014
#>  2     1  2014
#>  3     1  2014
#>  4     1  2014
#>  5     1  2014
#>  6     1  2014
#>  7     1  2014
#>  8     1  2014
#>  9     1  2014
#> 10     1  2014
#> # ... with 30,046 more rows
…
